,ds,actual_sales,ensemble_forecast,prophet_prediction,orbit_prediction
0,2017-01-01,0.0,2189.499982610107,1858.7083400250992,2677.58461968589
1,2017-01-02,1218.0,1345.1176868524126,1158.6145021792743,1787.974474836174
2,2017-01-03,3507.0,3295.823875918764,2824.1014343821066,3585.769482800686
3,2017-01-04,3665.0,3689.1553937934564,3242.073992023321,3508.8203137101573
4,2017-01-05,3085.0,2858.782575088613,2438.2551719466105,3250.9556281670048
5,2017-01-06,3012.0,3114.4989330643543,2702.8063173653463,3239.3635021558725
6,2017-01-07,2898.0,2717.5681546403425,2428.526354808996,2527.9092396575907
7,2017-01-08,1426.0,1408.1018570822907,1227.0690286006848,1767.4972046626012
8,2017-01-09,2850.0,2962.7306865383575,2574.7383918201326,3091.41581170257
9,2017-01-10,2939.0,2863.3680840971388,2490.8175882265105,2994.9545993985894
10,2017-01-11,3265.0,3227.121551305442,2849.56402015874,3072.4749311094793
11,2017-01-12,2736.0,2643.0241669439474,2276.2110369348893,2933.530347840241
12,2017-01-13,3014.0,3094.6496858821192,2699.6738081134727,3147.1728626267263
13,2017-01-14,2905.0,2773.4452265821224,2494.1350286742068,2483.6461878084215
14,2017-01-15,1410.0,1449.4407771714518,1281.5871340389415,1702.7643713156926
15,2017-01-16,2719.0,3097.177851596273,2702.051134969902,3148.332367089238
16,2017-01-17,3896.0,3028.2703916971764,2648.835962473662,3054.779119729823
17,2017-01-18,3068.0,3374.5952867890264,2988.9094605056753,3136.524915484615
18,2017-01-19,2395.0,2605.433129899368,2249.076940958556,2872.350315971569
19,2017-01-20,2523.0,2606.184226848997,2284.36748024032,2687.694862466157
20,2017-01-21,3212.0,3024.786993028492,2723.6086148299028,2635.6818358994205
21,2017-01-22,1190.0,1413.5773635813828,1269.2119557461692,1572.1176186375235
22,2017-01-23,3208.0,3138.8268324606925,2760.245630563723,3065.6354334505154
23,2017-01-24,2657.0,3062.722725052737,2694.8609105773517,2997.679696045093
24,2017-01-25,2830.0,3418.27886818738,3026.537255199992,3175.0118487665104
25,2017-01-26,2524.0,2507.1670818980224,2177.033299534521,2718.373852766201
26,2017-01-27,3039.0,3065.6220163496314,2700.64618249432,2982.646249397797
27,2017-01-28,2792.0,2767.7370350226524,2501.5883389066767,2412.445804286712
28,2017-01-29,1354.0,1319.5522230566678,1173.1742043930296,1569.7689309100574
29,2017-01-30,2792.0,2760.137469619706,2426.9145769431,2770.1826643309246
30,2017-01-31,2463.0,2856.2496474796594,2489.473197047595,2963.0748878278805
31,2017-02-01,3307.0,3431.307936731936,3051.798354391386,3111.396919750971
32,2017-02-02,2807.0,2697.6488947366283,2336.2376524653127,2912.2533554340725
33,2017-02-03,3091.0,3038.187252003171,2669.454553184927,2998.916062269481
34,2017-02-04,3198.0,2917.4426443162347,2634.376501776864,2523.8224852245085
35,2017-02-05,1256.0,1451.1615091671806,1310.9209053698196,1555.2952450230748
36,2017-02-06,2561.0,2881.863547154751,2534.196642742391,2864.4257245196695
37,2017-02-07,2842.0,3131.85787588124,2748.209983279486,3091.7664121099733
38,2017-02-08,2993.0,3443.4802304095188,3051.6599156332095,3178.947937443147
39,2017-02-09,2638.0,2655.8259414168574,2299.608092279186,2878.6391044888787
40,2017-02-10,3484.0,2975.5710300016017,2603.2202702671507,3009.5362578397817
41,2017-02-11,2885.0,2771.324093802472,2503.1860740662232,2423.5875236389284
42,2017-02-12,1210.0,1266.8657611394747,1135.1440273183755,1484.020032624152
43,2017-02-13,3257.0,3063.153555314859,2713.040534704494,2902.7969989224653
44,2017-02-14,2848.0,3215.024481625117,2822.2985780711747,3151.927090654286
45,2017-02-15,2740.0,3121.0275042781204,2741.2618224339567,3069.488861240951
46,2017-02-16,2643.0,2657.606551541882,2314.870367568577,2806.7706261821795
47,2017-02-17,2946.0,2813.3267612314053,2468.64303097837,2838.9084414545273
48,2017-02-18,3462.0,2873.9267002268384,2584.970080179198,2549.262524131763
49,2017-02-19,1079.0,1216.5503127217432,1084.3209095159725,1479.7176721179703
50,2017-02-20,2697.0,2759.8532516019704,2416.8544400579817,2822.4368851927957
51,2017-02-21,2831.0,2954.565732910451,2609.4596675953494,2860.867668954947
52,2017-02-22,3362.0,3224.542233135208,2871.9591541009013,2938.520503352708
53,2017-02-23,2983.0,2840.490747472487,2495.177820113998,2846.063016208529
54,2017-02-24,3120.0,3259.5673064126945,2893.7320362412993,3014.2951338071543
55,2017-02-25,2741.0,2630.8833137543365,2395.5250450624826,2228.651622485705
56,2017-02-26,927.0,1231.0938044118534,1120.3105711496546,1367.0252126613063
57,2017-02-27,762.0,813.0947246105399,719.4211375721732,1217.1987597333248
58,2017-02-28,1392.0,1106.4840838262394,966.3948907896329,1506.4096090218225
59,2017-03-01,3628.0,3496.5610571353827,3128.039287065347,3061.721854693471
60,2017-03-02,3323.0,2963.714705994254,2621.026169786069,2849.211795310488
61,2017-03-03,3391.0,3238.164241834998,2883.9249053021604,2949.280245301069
62,2017-03-04,3002.0,2937.8872170722957,2678.6680264962356,2399.110719663595
63,2017-03-05,1337.0,1480.2762861114534,1357.987213956491,1463.3288969556684
64,2017-03-06,2819.0,2908.319991115756,2598.1402172710864,2667.587729604371
65,2017-03-07,4917.0,3044.2836176712876,2714.3744594576847,2792.0894426211366
66,2017-03-08,3218.0,3410.9105454684254,3048.2979393577116,3018.1656846650512
67,2017-03-09,2700.0,2523.009712780856,2216.683341535185,2593.231721082205
68,2017-03-10,2966.0,2894.657642601028,2570.9514317236485,2738.0384358443243
69,2017-03-11,3023.0,2684.8706772337923,2466.4738638910594,2145.450678205434
70,2017-03-12,1438.0,1360.4403680272897,1244.4046569083937,1413.1633398357308
71,2017-03-13,2858.0,2836.4639282542644,2506.083249864589,2765.6249762510574
72,2017-03-14,2775.0,2844.2605290295164,2520.5483956346975,2731.040713707954
73,2017-03-15,3097.0,3207.341824174547,2878.2727464986024,2810.3390424828244
74,2017-03-16,2933.0,2524.5387479451297,2220.0522801946317,2583.602881969814
75,2017-03-17,3456.0,3108.5070348192767,2747.4600250613676,2967.611589273777
76,2017-03-18,3015.0,2619.357396564096,2383.4549350238435,2229.955009650317
77,2017-03-19,1458.0,1366.3892094144123,1229.4364607990758,1525.8836121645168
78,2017-03-20,3157.0,2825.8974352422874,2487.5950963019695,2806.526125657296
79,2017-03-21,3562.0,2688.954640881383,2383.596620760757,2611.1978098327318
80,2017-03-22,3074.0,2910.403393253692,2614.7559114638793,2590.14141572809
81,2017-03-23,2728.0,2651.8576762609096,2332.22119901856,2682.402595153997
82,2017-03-24,3321.0,2889.275963937036,2558.5124934093087,2775.0388654343424
83,2017-03-25,2853.0,2618.2226816799757,2382.4575082531946,2229.0623504504033
84,2017-03-26,1330.0,1186.0390386960437,1087.3734875230427,1295.9204139305634
85,2017-03-27,2830.0,2766.2667971263772,2439.6611730348536,2735.640140547041
86,2017-03-28,2937.0,2736.9683670228965,2416.5150147605823,2698.64352875237
87,2017-03-29,3104.0,3123.386008099385,2787.5704593152386,2834.7174433504024
88,2017-03-30,2557.0,2563.6713797768944,2262.662206491857,2570.4601841854874
89,2017-03-31,3185.0,2757.353130560473,2441.436782311367,2677.217218658015
90,2017-04-01,3912.0,3035.1704291913516,2770.227606541475,2443.296964930154
91,2017-04-02,1482.0,1360.9749737343732,1254.3277574467857,1363.0164723179346
92,2017-04-03,2886.0,2845.9869613873852,2551.51307079201,2574.878757939965
93,2017-04-04,2785.0,2872.964754930423,2542.8057794002225,2769.530176842214
94,2017-04-05,3492.0,3408.613643328179,3064.3365931305657,2919.7637840147513
95,2017-04-06,2461.0,2852.6540682516747,2526.989839456057,2742.6536991004805
96,2017-04-07,3054.0,3103.5508045479332,2770.860820171698,2815.231388841332
97,2017-04-08,3174.0,2866.2844604695533,2629.3257419284114,2270.046650007223
98,2017-04-09,1394.0,1457.7477798591642,1338.2269450394956,1445.378612777061
99,2017-04-10,2437.0,2773.1406242636153,2487.6573671088977,2516.6249577033213
100,2017-04-11,2674.0,3071.17218382772,2758.1620523382862,2705.4426971922567
101,2017-04-12,3374.0,3660.1744148023777,3307.4351265298324,3000.1182019058433
102,2017-04-13,2931.0,3629.769357639411,3286.1960303198903,2946.8462517750136
103,2017-04-14,1580.0,1903.7881063045288,1707.8911368505774,1916.1477094419527
104,2017-04-15,2030.0,2711.914815698264,2496.9144801312855,2131.0541829836175
105,2017-04-16,1185.0,1629.7863940218222,1516.9678140856465,1433.522548444926
106,2017-04-17,3641.0,3271.0659387196556,2937.0948780789163,2845.4492466539673
107,2017-04-18,2579.0,3129.203604496871,2751.594714155877,3059.092042441379
108,2017-04-19,2972.0,3680.446962882318,3299.6542408531614,3153.010738112404
109,2017-04-20,2546.0,2830.240719294593,2515.1266658912864,2683.0919213252537
110,2017-04-21,3112.0,3642.0594265716527,3250.1894800847394,3206.911310598823
111,2017-04-22,2824.0,3119.873495913841,2873.8027113566795,2354.1600647973605
112,2017-04-23,1163.0,1585.2634547884181,1495.7755328015357,1302.5108838693122
113,2017-04-24,2540.0,2999.0588804176723,2718.586690206384,2521.3306327888527
114,2017-04-25,2817.0,3139.098153788127,2821.3866999652646,2740.0655928143306
115,2017-04-26,2868.0,3518.760209465591,3187.8035297641995,2863.873024875622
116,2017-04-27,2301.0,2943.834686399259,2643.327362063912,2620.8009491220146
117,2017-04-28,2876.0,3436.6607569395114,3078.5962588285734,2997.4283506816632
118,2017-04-29,2426.0,2892.659230676162,2666.9382889005415,2213.6116987004834
119,2017-04-30,886.0,1425.5528767496717,1336.1047578181965,1280.0214921607596
120,2017-05-01,891.0,883.3559237523234,758.6796967042317,1392.839777157646
121,2017-05-02,4193.0,2986.10941660195,2655.1754359775327,2789.457323540853
122,2017-05-03,3777.0,3283.091343835642,2960.0959493049995,2788.414938199884
123,2017-05-04,2800.0,2674.6364055315353,2347.7655719062727,2724.278181376596
124,2017-05-05,2991.0,2836.099374470408,2510.5378661961163,2739.7951678249756
125,2017-05-06,2752.0,2730.004390475857,2499.229145344591,2217.961304679199
126,2017-05-07,1103.0,1209.5486162417242,1095.5744411830972,1381.0892390125682
127,2017-05-08,2854.0,2685.833438693566,2394.7101120795537,2534.6174862593507
128,2017-05-09,2763.0,2827.4025893039307,2505.8725800845136,2717.016629298212
129,2017-05-10,2925.0,3172.5399579556697,2861.796238212413,2707.457892132852
130,2017-05-11,2233.0,2272.9661267672604,2002.4786005346396,2366.644522889451
131,2017-05-12,3532.0,3068.571276396908,2723.6985454581554,2875.5210287115515
132,2017-05-13,2931.0,2857.2329712102614,2612.52748531647,2310.223564581004
133,2017-05-14,931.0,863.6697649589718,771.4299875687643,1216.5831695779261
134,2017-05-15,2531.0,2785.6969733363526,2510.6201798055345,2462.7095135841673
135,2017-05-16,2822.0,2703.27924767917,2398.415593539639,2610.551321180943
136,2017-05-17,3131.0,2948.7545996651934,2630.1160755694887,2718.4755553110936
137,2017-05-18,2600.0,2397.2215093657755,2100.7510018942503,2522.965238872488
138,2017-05-19,3077.0,2900.9292495013847,2575.5540920466547,2747.840818833307
139,2017-05-20,2573.0,2547.2202475999047,2338.09673264926,2076.6459390771997
140,2017-05-21,1205.0,1148.1257588546428,1064.0165755123369,1212.766564498767
141,2017-05-22,2842.0,2742.8482057529645,2459.632679737837,2500.2690952063463
142,2017-05-23,2665.0,2697.645810251773,2401.2255721856636,2564.599598733949
143,2017-05-24,3574.0,3190.4831656020992,2874.1307751111617,2739.9628146593645
144,2017-05-25,2505.0,2523.3253354680714,2223.566943854549,2558.1419592415505
145,2017-05-26,1301.0,1188.0119292432312,1087.7842446744662,1304.5518400514782
146,2017-05-27,2166.0,2196.4896528778195,1995.9752582698793,1981.6735767074053
147,2017-05-28,1258.0,1283.149933233167,1201.609868551267,1217.8569074692207
148,2017-05-29,2666.0,2854.6833320905603,2546.753177958887,2648.072688661212
149,2017-05-30,2497.0,2882.06247645841,2582.695747823478,2606.083609377578
150,2017-05-31,3262.0,3245.1405575579975,2918.734712920934,2801.3649127347994
151,2017-06-01,2774.0,2593.617305385636,2302.819769520366,2520.0124176200125
152,2017-06-02,2953.0,3099.9011813532898,2766.471221567368,2818.6806541061414
153,2017-06-03,2996.0,2885.11934188405,2646.2424846032677,2282.9343538909025
154,2017-06-04,1148.0,1280.9695691577394,1193.2098542627032,1250.8232724694396
155,2017-06-05,3071.0,3060.819619453545,2743.5319978382804,2726.8800957193625
156,2017-06-06,3383.0,2936.7338983152345,2644.096946153322,2577.709917025267
157,2017-06-07,3353.0,3346.2782312408135,3013.6191977319922,2848.9215126626277
158,2017-06-08,2902.0,2639.7028062784,2364.728128802668,2441.799962626987
159,2017-06-09,3105.0,3008.598340274437,2728.2890456476625,2521.789829558191
160,2017-06-10,3106.0,2799.1558513104337,2593.055908734341,2095.6121322677836
161,2017-06-11,1352.0,1364.2086494433365,1297.4629965089707,1150.0239474319974
162,2017-06-12,2601.0,2751.757662776453,2465.5751336004273,2517.383039370554
163,2017-06-13,2426.0,2806.8578834558293,2521.8309915491345,2518.8866370466394
164,2017-06-14,4411.0,3182.5796209922596,2888.994357376304,2617.0733035679104
165,2017-06-15,3189.0,2746.498519135205,2444.8454655780038,2599.4052420724765
166,2017-06-16,2991.0,3069.9883960089946,2756.986227611093,2705.234985552081
167,2017-06-17,3016.0,2702.3792504355574,2513.3044068986824,1991.0421428144223
168,2017-06-18,1223.0,1294.9110645085113,1189.6747212208832,1346.2547435189615
169,2017-06-19,3373.0,2706.2885008472185,2423.30315422376,2493.9384497603523
170,2017-06-20,4575.0,2732.1915932971106,2459.464132786097,2442.6793917608193
171,2017-06-21,2898.0,3194.9585875014654,2885.637244793421,2702.976194039551
172,2017-06-22,2499.0,2554.1963358597814,2267.8251983006285,2490.836045439937
173,2017-06-23,2663.0,2892.24407703293,2598.194415299629,2579.061405550157
174,2017-06-24,2877.0,2579.2081017485207,2358.872199068163,2141.08551280993
175,2017-06-25,3792.0,3437.4423555152907,3127.031503157024,2742.6259591059434
176,2017-06-26,2812.0,2679.5082233126213,2385.8949530686823,2547.0545820072593
177,2017-06-27,2653.0,2674.9038854702517,2396.85774833297,2463.1398336931184
178,2017-06-28,3003.0,3114.850038722336,2819.009151103376,2619.6922664572758
179,2017-06-29,2603.0,2407.2001679221235,2141.3447512167,2360.5891977070055
180,2017-06-30,2916.0,2951.1353147719133,2637.775499231833,2690.57047034446
181,2017-07-01,2871.0,2655.5740205364286,2461.7765572632557,2009.7762245067001
182,2017-07-02,1222.0,1274.013242773381,1183.798845743311,1262.9837180234654
183,2017-07-03,5904.0,6375.570457892069,5732.961569677166,4929.448221621495
184,2017-07-04,2759.0,2847.8961618045114,2582.620920887939,2418.9540883315963
185,2017-07-05,3147.0,3316.3219137467518,3023.255700506764,2632.951183330896
186,2017-07-06,2550.0,2536.507242584544,2271.1378508210732,2376.025113440939
187,2017-07-07,2972.0,2850.085449399675,2567.196338613687,2513.4804976164123
188,2017-07-08,2561.0,2684.9259234329243,2474.8738076906566,2100.82048499714
189,2017-07-09,1140.0,1216.6326004044313,1161.5107438034458,1067.2613719496449
190,2017-07-10,2849.0,2864.2413419828686,2572.2671466411057,2564.0533815153094
191,2017-07-11,2712.0,2798.172626680226,2504.3862378400518,2564.5319806110047
192,2017-07-12,3185.0,3370.0310960047414,3053.8081885422034,2764.313571602106
193,2017-07-13,2571.0,2520.941840959837,2239.2577833082064,2461.1253229793274
194,2017-07-14,3182.0,2986.774903230219,2705.9962094631846,2521.2568253677427
195,2017-07-15,2297.0,2650.0187509894467,2463.7361910936843,1968.8022542939696
196,2017-07-16,1028.0,1226.4662990207753,1168.1799989764,1085.560387614234
197,2017-07-17,2720.0,2802.591165934676,2519.217835418484,2509.4461958338907
198,2017-07-18,3370.0,2796.1711235385424,2517.3266981764027,2484.3244669257306
199,2017-07-19,3065.0,3173.201011526777,2900.1587725841337,2505.8753354789224
200,2017-07-20,2592.0,2754.904033786905,2463.7113587215913,2544.62243416214
201,2017-07-21,2725.0,3026.01335361156,2728.553065531217,2615.96388416041
202,2017-07-22,2576.0,2764.077810726429,2555.4188223146616,2104.4084212784455
203,2017-07-23,1371.0,1325.8125591871803,1265.9280259755851,1107.9665847659107
204,2017-07-24,2612.0,2912.380322828846,2639.317302998311,2469.607156732198
205,2017-07-25,2405.0,2441.8831617377878,2153.473054078495,2486.0775402001445
206,2017-07-26,2878.0,2827.140963828062,2503.92329195591,2726.007872272061
207,2017-07-27,2466.0,2606.0024473453727,2310.11128546662,2548.986995017401
208,2017-07-28,2622.0,2840.7359166963697,2559.459693229948,2503.5486798496872
209,2017-07-29,2446.0,2501.8127338655554,2338.16898602287,1827.0297044246058
210,2017-07-30,1086.0,1182.8795661960676,1128.4902122646608,1058.6351473811578
211,2017-07-31,2966.0,2974.0485734103577,2662.217795859311,2685.5872068213275
212,2017-08-01,2872.0,2781.863783656782,2500.26911605751,2497.0406168802874
213,2017-08-02,3247.0,3187.8316329912927,2885.394032814297,2665.1592438512253
214,2017-08-03,2177.0,2441.4244804201303,2157.6956724348474,2460.9721067168302
215,2017-08-04,2778.0,2766.8347096090106,2499.443274528061,2418.967672871071
216,2017-08-05,2034.0,2415.0349365061456,2254.38183793329,1798.9281738392676
217,2017-08-06,1025.0,1117.7411957025415,1054.7151571746801,1095.7494409419528
218,2017-08-07,2551.0,2555.0910745943797,2319.0765279771126,2221.5906969283683
219,2017-08-08,3062.0,2658.8513927337813,2419.7591591450955,2252.5265408448936
220,2017-08-09,2719.0,2923.0694492817756,2660.2923258011365,2416.0762167478433
221,2017-08-10,2591.0,2552.1241415705917,2294.0259436023825,2339.307907306088
222,2017-08-11,1270.0,1033.2834232094842,973.2216733724847,1068.112517466369
223,2017-08-12,1630.0,1852.1500836768794,1726.2587402400031,1534.467416506215
224,2017-08-13,952.0,935.7111145779611,895.5953470602897,947.8069987273024
225,2017-08-14,2407.0,2631.419575257266,2380.073205393088,2314.2508191025036
226,2017-08-15,2508.0,2611.3074592806024,2366.6747393692112,2275.5325632828217
